{
    "kasten": [
        {
            "id": 1,
            "title": "ijskast",
            "inhouds": [
                {
                    "id": 1,
                    "kast_id": 1,
                    "aantal": 8,
                    "naam": "acht"
                },
                {
                    "id": 3,
                    "kast_id": 1,
                    "aantal": 2,
                    "naam": "cola"
                }
            ]
        },
        {
            "id": 2,
            "title": "snoepkast",
            "inhouds": [
                {
                    "id": 2,
                    "kast_id": 2,
                    "aantal": 5,
                    "naam": "vijf"
                }
            ]
        },
        {
            "id": 5,
            "title": "geen kast!!",
            "inhouds": []
        }
    ]
}